
                                                                  =
                                                              /#@,  M#
                                                          X#####:    $###=
                                                      @MM########H$M#=#@  M@
                                                    MM###############H##   #
                                                  #M####################X#.XX
                                                +###########################@
                                               #M############################
                                              ###############################M
                                             ###############################M#
                                            ##################################
                                           ###################################
                                        H#M###################################.
                                       /@#####################################
                                       ##M:.   /#M############################
                                      M$          ####@#####################M#
                                     M.           $X       /#################/
                                    +$           X,          X###############
                                    M,          H=            $M############X
                                    M.         .$              $############
                                    M;         :;              ;M##########M
                                    ,M;#+ ..--%@/              ;M##########
                                     #M/:M######X              $##########
                                    ,###########M$   ,X.      +M#########:
                                    +####M#######H,  +#$     .M#########:
                                    ##############H@.      ,#@#########X
                                  H#@%%%++%++H#######@$$HH@###########=
                              ,##H++%%%%%%+%+++++##################M#####
                            @#M%++%+%%%%+%++++%%++X###################@:#
                        #MX%%%+%++++++%+%%%%+%+%++++################@  =/
                      ,#++++++%%+%++++++%+%%%%+%+++++@###########M##.  $
                       $%+%%%%+%++++++%+%%%%+%++++++%+M##############+ M
                        M#++%+%%%%+%++++++%+%%%%+%++++###########M#@## #
                        $#%#M%++++++%+%%%%+%++++++%+%+############M###
                        .#%+++++++%+%%%%+%++++++%+%%%%########@######
                          #@%%%%+%++++++%+%%%%+%++++%%#########H###@
     =$:           $+.         X#%%+%%%%+%++++++%+%%%XM#########+
    #M#M#   @#@@##@###@M         @M+++++%+%%%%+%+++++###########.
   :######/#M####M#######         .M@+++++++%+%%%%+%M@#########M,
    #####################           $#X+%%+%++++++%X@##########M
    #M###############M###.            M##X%%%%+%+@#M############
    =###################M#            ;###H$HHX@################
     @M###M###############@#          ##########################
     .######HH##############        ###M##########################+
      ###############MH####M.     .##$##########################M+=#
      ######################     /$:H#@####M/H#@XM#######M@X+,     ;;
      #####################H    M$ H-@###M.H,+M###XM              ,+#H=
      ####################/   .#  $/ $##H  ,;/######@+          X+      .+M;
      ###################=   ,#M -$  $@H    H ,M#####H+   @@M$H/            /M
     X##################@  #MH  +#   /;     H=  +####M$$M####M@,              ;#
     ###################/ =#-M, ;$          $;   /#M##########M@               .M
     ##################M  #MM##,@.          ;+  ,M#######@######@-           =MMM#
    $##################M#M####@#;            :+/MM########@######@        :#HM@$.#
    ############################                @#########@######M      :M#######$
    #M########################MX               :MHM#M############M     ;@########M;
    #M#################M#######,          .-$MH##################@    MM###########@
    ##########################$         MH#######################@@.,M##############MM
    #########################M=        $###########################H#@###############M@ 
