   .---. .-.  .-.,---.    .--.  _______ 
  ( .-._)| |/\| || .-'   / /\ \|__   __|
 (_) \   | /  \ || `-.  / /__\ \ )| |   
 _  \ \  |  /\  || .-'  |  __  |(_) |   
( `-'  ) |(/  \ ||  `--.| |  |)|  | |   
 `----'  (_)   \|/( __.'|_|  (_)  `-'   
                (__)                    